%YAML 1.1
%TAG !u! tag:unity3d.com,2011:
--- !u!1 &291751688747584711
GameObject:
  m_ObjectHideFlags: 0
  m_CorrespondingSourceObject: {fileID: 0}
  m_PrefabInstance: {fileID: 0}
  m_PrefabAsset: {fileID: 0}
  serializedVersion: 6
  m_Component:
  - component: {fileID: 1851469211037339493}
  - component: {fileID: 8938658020660332782}
  - component: {fileID: 5686257318494901624}
  - component: {fileID: 8564545989406748987}
  m_Layer: 0
  m_Name: GameManager
  m_TagString: Untagged
  m_Icon: {fileID: 0}
  m_NavMeshLayer: 0
  m_StaticEditorFlags: 0
  m_IsActive: 1
--- !u!4 &1851469211037339493
Transform:
  m_ObjectHideFlags: 0
  m_CorrespondingSourceObject: {fileID: 0}
  m_PrefabInstance: {fileID: 0}
  m_PrefabAsset: {fileID: 0}
  m_GameObject: {fileID: 291751688747584711}
  m_LocalRotation: {x: 0, y: 0, z: 0, w: 1}
  m_LocalPosition: {x: -0.08715966, y: -2.4771514, z: 8.869343}
  m_LocalScale: {x: 1, y: 1, z: 1}
  m_ConstrainProportionsScale: 0
  m_Children: []
  m_Father: {fileID: 0}
  m_RootOrder: 0
  m_LocalEulerAnglesHint: {x: 0, y: 0, z: 0}
--- !u!114 &8938658020660332782
MonoBehaviour:
  m_ObjectHideFlags: 0
  m_CorrespondingSourceObject: {fileID: 0}
  m_PrefabInstance: {fileID: 0}
  m_PrefabAsset: {fileID: 0}
  m_GameObject: {fileID: 291751688747584711}
  m_Enabled: 1
  m_EditorHideFlags: 0
  m_Script: {fileID: 11500000, guid: f98c79322f785d841869b88b1d9f963c, type: 3}
  m_Name: 
  m_EditorClassIdentifier: 
  stressLevelTime: []
  stress: 0
  timeBeforeEndGame: 0
  stressLevelLimit: []
  roomName: 
  UserCurrent: {fileID: 0}
  gameOver: 0
  exitRoom: 0
  preFabLearner: {fileID: 0}
--- !u!114 &5686257318494901624
MonoBehaviour:
  m_ObjectHideFlags: 0
  m_CorrespondingSourceObject: {fileID: 0}
  m_PrefabInstance: {fileID: 0}
  m_PrefabAsset: {fileID: 0}
  m_GameObject: {fileID: 291751688747584711}
  m_Enabled: 1
  m_EditorHideFlags: 0
  m_Script: {fileID: 11500000, guid: 41cff1e77d6a1f14e9fb5ac0437d5e5a, type: 3}
  m_Name: 
  m_EditorClassIdentifier: 
  prefabFear: {fileID: 0}
--- !u!114 &8564545989406748987
MonoBehaviour:
  m_ObjectHideFlags: 0
  m_CorrespondingSourceObject: {fileID: 0}
  m_PrefabInstance: {fileID: 0}
  m_PrefabAsset: {fileID: 0}
  m_GameObject: {fileID: 291751688747584711}
  m_Enabled: 1
  m_EditorHideFlags: 0
  m_Script: {fileID: 11500000, guid: 8019d9a4c6620ea4a9baaf1d695768dc, type: 3}
  m_Name: 
  m_EditorClassIdentifier: 
  stressValue: 100
  gameManagerSystem: {fileID: 0}
